Name,Price,Quantity,ESRBRating,Serial Number,Consumer Rating,Creator Name,Creator Phone Number
Marvel's Spider-Man PS4,59.99,1000000,Teen,null,4.8,Sony,5555555555
PlayStation 4,299.95,2000000,null,THISISAPLAYSTATION,4.6,Sony,5555555555
Tom Clancy's Rainbow Six Siege,59.99,1000000,Mature,3.3,9.9,Ubisoft,5555555555
