employee_id,first_name,last_name,email,gender,address,dob,phone,payRate,password,position,total_hours
manager,Manager,Chipmunk,manager@gamego.com,MALE,null,08/12/1998,111111111111,0.0,password,MANAGER,0.0
cashier,Cashier,Chipmunk,manager@gamego.com,MALE,null,08/12/1998,111111111111,0.0,password,CASHIER,0.0
1073,Ambros,Kaplan,akaplan0@dagondesign.com,MALE,75 Lerdahl Circle,04/24/2018,627-153-5321,4.89,0Ee,TECHNICIAN,0.0
4583,Ilsa,Pankhurst.,ipankhurst1@alibaba.com,FEMALE,60566 Cordelia Parkway,12/18/2017,206-262-8802,24.93,1Wf,CASHIER,0.0
8518,Jeremias,Rheam,jrheam2@intel.com,MALE,122 Dunning Hill,03/28/2018,853-253-3009,28.66,4Fi,CASHIER,0.0
1941,Marita,Murton,mmurton3@aboutads.info,FEMALE,304 Karstens Terrace,01/15/2018,522-479-3408,24.99,6Lh,MANAGER,0.0
1340,Haskel,Lupson,hlupson4@bluehost.com,MALE,957 Clarendon Lane,03/01/2018,719-378-5289,22.93,1Yy,MANAGER,0.0
659,Geoffrey,McDonough,gmcdonough5@uiuc.edu,MALE,0 Utah Parkway,11/11/2018,784-313-4857,17.92,3Zk,STOCKER,0.0
3523,Norri,Fereday,nfereday6@webnode.com,FEMALE,55 Swallow Plaza,07/05/2018,680-109-1829,25.53,5Um,STOCKER,0.0
9490,Carlie,Cartmill,ccartmill7@home.pl,FEMALE,3339 Crescent Oaks Point,06/29/2018,349-817-8534,21.7,9Hw,MANAGER,0.0
2482,Leicester,Killigrew,lkilligrew8@etsy.com,MALE,91419 Pine View Junction,09/29/2018,786-255-0325,16.58,9Gj,TECHNICIAN,0.0
9952,Orson,Spittall,ospittall9@mapy.cz,MALE,9 Fuller Park,04/08/2018,809-489-6133,5.77,9Nm,MANAGER,0.0
5949,Daven,Buddock,dbuddocka@gravatar.com,MALE,363 Jackson Crossing,07/21/2018,339-312-8186,14.76,9Iz,MANAGER,0.0
10000,Ahmad,Lorking,alorkingb@economist.com,MALE,2 Darwin Point,06/05/2018,194-973-3784,19.84,0Rg,MANAGER,0.0
397,Brianna,Found,bfoundc@mediafire.com,FEMALE,45 La Follette Park,04/17/2018,515-485-8241,19.57,1Og,CASHIER,0.0
2243,Rois,Campanelle,rcampanelled@bandcamp.com,FEMALE,2 Fuller Pass,07/30/2018,695-600-5644,26.02,8Eu,TECHNICIAN,0.0
4990,Selie,Mc Gaughey,smcgaugheye@diigo.com,FEMALE,29870 6th Lane,05/23/2018,774-837-7039,3.53,6Xf,TECHNICIAN,0.0
8281,Phillipp,Eastby,peastbyf@list-manage.com,MALE,56600 Gateway Park,09/26/2018,901-619-5691,7.16,4Qj,MANAGER,0.0
6064,Rinaldo,Paschek,rpaschekg@usa.gov,MALE,20331 Elmside Park,02/01/2018,282-435-1663,4.36,5Oa,MANAGER,0.0
362,Janos,Proudman,jproudmanh@baidu.com,MALE,630 Mifflin Trail,05/29/2018,690-922-9364,10.18,4Ka,MANAGER,0.0
2534,Carmelita,Pallesen,cpalleseni@comcast.net,FEMALE,3850 Forest Dale Lane,07/29/2018,655-682-1532,16.03,8Ve,STOCKER,0.0
8266,Gloriana,Ryder,gryderj@pagesperso-orange.fr,FEMALE,613 West Park,03/17/2018,177-133-9335,15.63,5Xx,STOCKER,0.0
8673,Kennedy,Calafate,kcalafatek@geocities.jp,MALE,8 Alpine Crossing,07/03/2018,601-326-7709,14.74,7Qg,CASHIER,0.0
9134,Kean,Edmett,kedmettl@forbes.com,MALE,31 Longview Street,04/07/2018,164-125-7860,21.97,7Cs,STOCKER,0.0
95,Dulcine,Eseler,deselerm@ocn.ne.jp,FEMALE,01 Rusk Crossing,02/24/2018,206-286-2584,12.71,6Xg,STOCKER,0.0
3811,Bayard,Troni,btronin@moonfruit.com,MALE,70 Lukken Center,12/02/2017,216-147-8251,1.68,0Nu,TECHNICIAN,0.0
1775,Chadwick,Suett,csuetto@freewebs.com,MALE,605 Fulton Center,01/17/2018,860-431-8707,24.15,1Lg,CASHIER,0.0
8500,Regan,Bareham,rbarehamp@opensource.org,MALE,40 Melrose Lane,12/09/2017,615-740-2244,18.04,3Qd,CASHIER,0.0
7917,Adrea,Dore,adoreq@apple.com,FEMALE,8575 Veith Point,06/27/2018,614-807-7411,5.2,9Vf,CASHIER,0.0
3132,Hall,Duligal,hduligalr@infoseek.co.jp,MALE,0768 Everett Crossing,01/01/2018,559-106-2025,18.7,5Qx,STOCKER,0.0
7762,Suzie,Foulgham,sfoulghams@csmonitor.com,FEMALE,8 Old Shore Terrace,11/27/2018,914-388-0466,10.73,1Zd,CASHIER,0.0
4875,Darryl,Sevitt,dsevittt@alexa.com,MALE,5144 Oak Crossing,12/12/2017,562-659-1102,19.52,6Fj,CASHIER,0.0
4552,Tod,Saunder,tsaunderu@joomla.org,MALE,8 Westport Pass,05/08/2018,691-221-0400,28.14,3Du,MANAGER,0.0
1057,Brigg,Attril,battrilv@google.cn,MALE,08 Arizona Road,04/14/2018,650-898-5785,12.11,9Xw,CASHIER,0.0
50,Boot,Philpots,bphilpotsw@auda.org.au,MALE,50 Coleman Alley,10/28/2018,859-619-4649,22.01,6Bs,CASHIER,0.0
8309,Sloan,Twitty,stwittyx@lycos.com,MALE,1212 Burrows Street,05/31/2018,122-169-3342,12.22,7Zf,CASHIER,0.0
4390,D'arcy,Aujean,daujeany@loc.gov,MALE,3985 Kinsman Hill,03/02/2018,337-609-6566,1.81,2Fd,MANAGER,0.0
8565,Carolan,Ticksall,cticksallz@bloglovin.com,FEMALE,7 Service Way,01/18/2018,805-669-9966,12.97,1Gx,STOCKER,0.0
7266,Rees,Pentelo,rpentelo10@thetimes.co.uk,MALE,619 Fisk Hill,08/10/2018,850-302-7761,20.46,1Pb,TECHNICIAN,0.0
4901,Cortney,Drews,cdrews11@chicagotribune.com,FEMALE,04341 Meadow Vale Way,08/27/2018,653-556-5287,9.01,2Fj,CASHIER,0.0
192,Grantham,Purches,gpurches12@msu.edu,MALE,07422 Montana Hill,08/02/2018,102-404-7068,29.87,8Za,TECHNICIAN,0.0
1325,Devonna,Forestel,dforestel13@google.ru,FEMALE,45646 Kings Place,07/31/2018,557-211-6999,3.13,6Qf,CASHIER,0.0
6019,Loise,Berfoot,lberfoot14@yale.edu,FEMALE,05 Golf Plaza,08/16/2018,864-570-0258,8.74,6My,TECHNICIAN,0.0
3675,Rodd,Aberkirdo,raberkirdo15@reuters.com,MALE,48904 Gale Road,05/15/2018,174-930-3676,8.01,0Jo,TECHNICIAN,0.0
2058,Hastie,Settle,hsettle16@com.com,MALE,6549 Shoshone Street,03/31/2018,159-125-3417,20.4,2Hy,STOCKER,0.0
5021,Mariejeanne,Ainge,mainge17@phpbb.com,FEMALE,5628 Armistice Avenue,09/25/2018,415-705-3886,4.14,5Yd,MANAGER,0.0
7017,Whitney,Walduck,wwalduck18@people.com.cn,FEMALE,6 Blaine Place,11/19/2018,160-659-7081,16.42,2Li,CASHIER,0.0
2511,Gretta,Rodder,grodder19@bbb.org,FEMALE,74439 Larry Place,11/07/2018,636-966-1283,15.34,1Wv,MANAGER,0.0
4458,Nikolai,Vanetti,nvanetti1a@miibeian.gov.cn,MALE,0 Green Ridge Court,12/22/2017,673-822-3972,20.97,1So,MANAGER,0.0
332,Georgie,Harkes,gharkes1b@berkeley.edu,FEMALE,52735 Summerview Trail,02/17/2018,607-589-5965,14.21,4Uz,CASHIER,0.0
8793,Joane,Lagden,jlagden1c@scientificamerican.com,FEMALE,8512 Banding Hill,11/21/2018,443-963-8937,17.71,7Xp,STOCKER,0.0
1710,Raymund,Schooley,rschooley1d@altervista.org,MALE,5 Lerdahl Court,09/27/2018,123-499-0356,28.89,7Qn,STOCKER,0.0
6069,Tammie,Barrowcliffe,tbarrowcliffe1e@goo.ne.jp,FEMALE,6 Sycamore Hill,05/16/2018,760-643-4172,26.02,2Yv,MANAGER,0.0
9323,Basilio,Billion,bbillion1f@w3.org,MALE,4514 Continental Alley,09/25/2018,768-407-7994,22.75,5Zw,CASHIER,0.0
8362,Milty,Cole,mcole1g@quantcast.com,MALE,182 Forest Run Point,07/10/2018,328-515-9784,5.33,8Fe,TECHNICIAN,0.0
5304,Skipp,McIlvenna,smcilvenna1h@wikimedia.org,MALE,9 Mandrake Court,12/02/2017,687-884-9895,4.6,2Hk,STOCKER,0.0
6335,Nat,Gouley,ngouley1i@csmonitor.com,FEMALE,0 Westport Crossing,04/27/2018,119-760-7098,27.54,7Rf,CASHIER,0.0
8513,Boycie,Tumpane,btumpane1j@examiner.com,MALE,1 Scofield Hill,12/27/2017,227-394-9220,7.6,4Te,TECHNICIAN,0.0
388,Pet,Leehane,pleehane1k@sitemeter.com,FEMALE,127 Lighthouse Bay Alley,11/05/2018,639-668-5448,18.79,4Gy,STOCKER,0.0
9422,Phillipe,Giraldo,pgiraldo1l@etsy.com,MALE,61215 Anderson Terrace,12/15/2017,210-480-8567,8.35,2Kw,CASHIER,0.0
5677,Tresa,Barrar,tbarrar1m@businessinsider.com,FEMALE,52 Clyde Gallagher Lane,02/14/2018,937-929-4088,26.24,8Ls,CASHIER,0.0
9144,Weber,Lovell,wlovell1n@naver.com,MALE,2567 Schurz Court,05/23/2018,739-155-7147,29.01,7Ze,STOCKER,0.0
3082,Yul,Boyson,yboyson1o@engadget.com,MALE,7803 Fulton Place,05/06/2018,623-435-7897,5.08,2Iy,CASHIER,0.0
640,Edlin,Demead,edemead1p@google.pl,MALE,220 Monica Hill,11/04/2018,958-187-1338,5.12,9Lp,CASHIER,0.0
792,Lona,Uren,luren1q@businesswire.com,FEMALE,7 Amoth Terrace,02/27/2018,717-991-4062,1.08,1Yq,TECHNICIAN,0.0
8190,Karalee,McCourtie,kmccourtie1r@go.com,FEMALE,2 Thackeray Alley,08/12/2018,216-594-1470,7.8,4Of,TECHNICIAN,0.0
1288,Brockie,Naish,bnaish1s@sohu.com,MALE,3360 Dottie Avenue,11/14/2018,346-450-4631,2.06,2Jb,STOCKER,0.0
586,Corinna,Springtorpe,cspringtorpe1t@dedecms.com,FEMALE,4 Continental Parkway,04/04/2018,649-580-4117,21.57,1To,STOCKER,0.0
817,Hugibert,Sweatland,hsweatland1u@shinystat.com,MALE,8710 Lighthouse Bay Parkway,01/25/2018,765-244-5918,11.27,7Zk,CASHIER,0.0
7072,Sarina,Baelde,sbaelde1v@github.com,FEMALE,7756 Main Street,05/10/2018,930-822-1556,27.62,1Go,STOCKER,0.0
5023,Alanah,Rawdall,arawdall1w@google.pl,FEMALE,5 Armistice Place,11/27/2018,544-821-3772,22.21,0Pv,CASHIER,0.0
6572,Hervey,Locarno,hlocarno1x@usa.gov,MALE,89848 Waywood Avenue,01/04/2018,418-277-5044,15.8,2Zm,MANAGER,0.0
5912,Winonah,Stanton,wstanton1y@jimdo.com,FEMALE,393 Stuart Way,06/16/2018,236-255-2878,15.41,0Ow,MANAGER,0.0
91,Mandy,Lampel,mlampel1z@ebay.com,FEMALE,6488 Sage Drive,09/30/2018,490-603-0113,21.4,5Sb,STOCKER,0.0
9126,Gelya,Tiery,gtiery20@networkadvertising.org,FEMALE,5 Porter Hill,10/14/2018,928-973-8138,19.63,0Tl,CASHIER,0.0
8109,Arielle,Guillford,aguillford21@cyberchimps.com,FEMALE,9207 Warrior Drive,03/21/2018,532-529-6781,2.7,9Zy,MANAGER,0.0
3613,Aridatha,Charlo,acharlo22@techcrunch.com,FEMALE,149 Commercial Street,11/22/2018,477-707-2809,27.5,3Ws,MANAGER,0.0
1937,Laverne,Bilyard,lbilyard23@sourceforge.net,FEMALE,99464 Texas Circle,10/07/2018,273-670-3522,27.33,9Fg,STOCKER,0.0
6764,Mina,Jeffers,mjeffers24@cnet.com,FEMALE,31288 Waxwing Point,07/02/2018,159-984-5875,18.09,0Cc,CASHIER,0.0
4966,Melamie,Melross,mmelross25@baidu.com,FEMALE,10 Loomis Center,07/22/2018,112-870-3175,27.13,4Jr,STOCKER,0.0
3969,Simone,Keetch,skeetch26@reverbnation.com,MALE,310 Daystar Plaza,07/30/2018,682-324-7458,10.81,8Vx,TECHNICIAN,0.0
3042,Gaelan,Chartre,gchartre27@nbcnews.com,MALE,3 Meadow Valley Pass,09/15/2018,583-707-8482,29.46,3Pk,STOCKER,0.0
86,Smith,Merigeau,smerigeau28@unc.edu,MALE,6586 Waubesa Park,04/13/2018,942-809-1699,28.27,0St,STOCKER,0.0
6788,Herman,De Blasiis,hdeblasiis29@ucla.edu,MALE,60425 Bonner Point,07/29/2018,583-736-6756,24.92,2Nn,STOCKER,0.0
1763,Linc,Morgue,lmorgue2a@bloomberg.com,MALE,803 Reindahl Road,06/08/2018,486-728-3810,12.11,5Bz,MANAGER,0.0
9880,Mercie,Epperson,mepperson2b@ameblo.jp,FEMALE,1783 Hayes Pass,10/20/2018,918-356-5568,21.57,2Kw,CASHIER,0.0
3467,Albertine,Pagin,apagin2c@ibm.com,FEMALE,90989 Valley Edge Place,06/19/2018,551-505-6419,14.25,8Lo,STOCKER,0.0
4419,Hobey,Guwer,hguwer2d@parallels.com,MALE,18510 Arizona Plaza,04/10/2018,824-777-5079,9.08,8Ds,MANAGER,0.0
2165,Monica,Cosker,mcosker2e@alexa.com,FEMALE,385 Little Fleur Road,08/17/2018,527-424-9805,23.28,2Lb,STOCKER,0.0
3661,Hercules,Dallewater,hdallewater2f@berkeley.edu,MALE,8755 Blaine Plaza,01/13/2018,379-720-2818,21.84,7Us,TECHNICIAN,0.0
8209,Zoe,Standrin,zstandrin2g@dion.ne.jp,FEMALE,89635 Hollow Ridge Road,01/20/2018,977-901-5563,2.38,0Te,MANAGER,0.0
7183,Quinta,Pietrusiak,qpietrusiak2h@mac.com,FEMALE,05 Coleman Park,01/29/2018,946-254-6689,16.08,5Ok,TECHNICIAN,0.0
7944,Shaun,Breissan,sbreissan2i@over-blog.com,MALE,284 Kennedy Junction,09/06/2018,199-948-9267,11.78,4Bv,STOCKER,0.0
1275,Noel,Haughton,nhaughton2j@wix.com,MALE,0998 Forest Dale Street,04/23/2018,829-461-5423,19.81,9Sl,MANAGER,0.0
5365,Viola,Lyosik,vlyosik2k@imdb.com,FEMALE,6288 Cottonwood Alley,01/17/2018,848-844-1055,23.03,0Vh,TECHNICIAN,0.0
3125,Cindee,Gorner,cgorner2l@nsw.gov.au,FEMALE,9996 Mcguire Terrace,08/25/2018,221-208-8287,25.07,6St,MANAGER,0.0
2511,Michael,Ingliby,mingliby2m@homestead.com,MALE,987 Dorton Way,10/08/2018,387-332-4704,23.77,1Mo,CASHIER,0.0
8250,Donielle,Kennagh,dkennagh2n@booking.com,FEMALE,087 Spaight Plaza,06/10/2018,278-632-7107,24.87,7Dq,MANAGER,0.0
2851,Mallissa,Boyne,mboyne2o@webeden.co.uk,FEMALE,3 Debs Park,04/28/2018,810-380-4939,14.41,6Ac,TECHNICIAN,0.0
2447,Brock,Bahde,bbahde2p@scribd.com,MALE,8441 Morrow Point,07/07/2018,143-844-0250,1.6,9Ft,TECHNICIAN,0.0
4700,Greer,Tuttle,gtuttle2q@aboutads.info,FEMALE,2 Mcguire Road,12/24/2017,218-644-1785,4.18,7Sj,TECHNICIAN,0.0
9175,Eloise,Hutson,ehutson2r@theglobeandmail.com,FEMALE,723 Bartelt Avenue,04/18/2018,139-344-7566,12.71,8Ja,STOCKER,0.0
