name,price,quantity,rating,console
Asoka,53.98,399,TEEN,XBOX
Sonsing,40.89,74,E_CHILD,PS4
Tampflex,58.45,652,E_TEN,PC
Aerified,46.0,826,MATURE,PC
Bigtax,47.39,19,ADULT,PC
Konklux,58.17,358,ADULT,PS4
Tres-Zap,45.99,209,MATURE,XBOX
Rank,78.57,649,TEEN,XBOX
Opela,68.25,136,E_CHILD,PS4
Tresom,76.31,838,EVERYONE,XBOX
Tin,68.88,993,MATURE,PC
Viva,71.43,50,E_TEN,PS4
Fixflex,46.78,195,TEEN,PS4
Y-find,31.75,936,TEEN,XBOX
Cardify,69.51,244,ADULT,PC
Keylex,35.24,735,TEEN,PC
Wrapsafe,45.53,771,E_CHILD,XBOX
Viva,77.65,163,E_CHILD,XBOX
Tres-Zap,63.39,227,MATURE,XBOX
Hatity,28.88,108,EVERYONE,XBOX
Treeflex,59.42,715,MATURE,XBOX
Flowdesk,40.91,747,E_CHILD,PS4
Y-Solowarm,20.7,566,MATURE,XBOX
Overhold,45.71,304,ADULT,PC
Toughjoyfax,64.45,808,EVERYONE,PS4
Temp,21.88,609,MATURE,PS4
Lotstring,60.43,709,MATURE,XBOX
Zathin,27.39,460,EVERYONE,PC
Lotlux,72.66,866,MATURE,PC
Matsoft,62.68,88,EVERYONE,PC
Tres-Zap,24.51,490,ADULT,XBOX
Sonsing,69.77,731,MATURE,XBOX
Y-Solowarm,69.64,582,MATURE,PS4
Kanlam,72.77,392,E_TEN,PS4
Vagram,57.42,968,TEEN,XBOX
Sub-Ex,78.29,435,MATURE,PS4
Daltfresh,79.06,196,ADULT,XBOX
Wrapsafe,72.67,352,E_CHILD,PS4
Overhold,30.45,497,EVERYONE,PC
Asoka,59.51,541,E_CHILD,PS4
Otcom,20.55,663,TEEN,PC
Bitwolf,31.05,938,MATURE,XBOX
Voyatouch,28.01,75,EVERYONE,XBOX
Sonair,33.12,563,MATURE,XBOX
Alpha,75.84,113,TEEN,PS4
Greenlam,29.85,116,ADULT,PS4
Konklab,52.47,758,TEEN,XBOX
Aerified,49.1,382,MATURE,PC
Greenlam,60.01,740,TEEN,PC
Zontrax,34.61,412,EVERYONE,PC
Biodex,63.82,896,E_TEN,XBOX
Wrapsafe,68.46,970,E_CHILD,XBOX
Domainer,38.42,17,ADULT,PS4
Veribet,65.05,468,TEEN,XBOX
Gembucket,30.78,259,ADULT,PC
Zoolab,38.1,950,MATURE,XBOX
Span,47.48,361,EVERYONE,PC
Vagram,54.91,458,ADULT,XBOX
Stim,22.13,505,TEEN,XBOX
Tres-Zap,38.46,769,ADULT,PC
Zontrax,24.97,375,ADULT,PS4
Tampflex,28.16,991,TEEN,PS4
Rank,37.2,440,EVERYONE,PS4
Cookley,22.01,598,EVERYONE,PS4
Tin,20.4,264,EVERYONE,XBOX
Greenlam,25.37,365,EVERYONE,XBOX
Fix San,66.14,449,EVERYONE,PC
Solarbreeze,25.19,783,E_CHILD,PC
Holdlamis,50.75,794,E_CHILD,PS4
Cardguard,26.26,421,MATURE,XBOX
Fix San,38.12,65,E_CHILD,XBOX
Namfix,52.52,764,E_TEN,XBOX
It,52.31,75,EVERYONE,PC
Prodder,29.36,876,TEEN,PC
Rank,76.52,227,E_CHILD,PS4
Alphazap,72.07,872,EVERYONE,PC
Viva,51.85,334,E_TEN,PS4
Duobam,22.1,801,E_TEN,XBOX
Namfix,75.68,883,ADULT,PS4
Sonair,75.27,83,TEEN,XBOX
Viva,41.43,912,TEEN,XBOX
Bigtax,58.65,281,E_TEN,PC
Latlux,73.7,137,MATURE,PC
Stronghold,79.02,957,EVERYONE,PS4
Mat Lam Tam,30.38,79,EVERYONE,XBOX
Pannier,64.85,606,E_TEN,XBOX
Cardguard,48.7,683,TEEN,PS4
Veribet,49.83,72,MATURE,PC
Duobam,39.15,802,TEEN,XBOX
Subin,66.16,484,E_TEN,PS4
Ventosanzap,59.1,859,E_CHILD,XBOX
Gembucket,31.91,670,E_TEN,XBOX
Zamit,63.2,327,ADULT,PC
Zamit,71.64,639,ADULT,PC
Bitwolf,53.38,927,E_CHILD,PS4
Konklux,64.31,161,MATURE,XBOX
Holdlamis,76.23,758,E_TEN,PS4
Voltsillam,78.97,96,ADULT,PS4
Flexidy,23.78,869,E_CHILD,PS4
Voyatouch,59.17,662,EVERYONE,PC
Voyatouch,29.94,413,EVERYONE,PS4
Fix San,57.41,559,E_CHILD,PC
Andalax,65.73,440,ADULT,PS4
Bitchip,72.4,805,E_TEN,PS4
Y-Solowarm,33.96,117,ADULT,XBOX
Flowdesk,60.22,442,MATURE,PC
Viva,43.08,990,E_TEN,PS4
Tin,78.6,541,MATURE,XBOX
Ronstring,41.85,986,MATURE,PC
Daltfresh,35.14,148,EVERYONE,PC
Kanlam,31.42,301,TEEN,PS4
Alphazap,30.82,562,EVERYONE,PS4
Home Ing,43.5,262,TEEN,XBOX
Fix San,29.36,861,E_CHILD,PS4
Konklab,42.59,270,TEEN,PS4
Tempsoft,39.58,951,MATURE,XBOX
Kanlam,48.35,801,EVERYONE,PC
Bytecard,47.59,258,E_CHILD,PS4
Vagram,76.24,177,E_TEN,XBOX
Konklux,65.07,728,E_CHILD,PS4
Fintone,57.65,219,ADULT,XBOX
Biodex,30.27,146,MATURE,PC
Transcof,59.74,149,TEEN,PC
Bigtax,66.12,888,E_TEN,PS4
Sonsing,50.15,197,TEEN,PS4
Voyatouch,32.93,230,TEEN,PC
Mat Lam Tam,46.72,440,EVERYONE,PC
Aerified,62.75,448,MATURE,PC
Cookley,71.19,530,MATURE,PC
Tampflex,29.66,310,ADULT,XBOX
Regrant,56.04,615,TEEN,PC
Trippledex,29.64,465,MATURE,XBOX
Treeflex,63.74,425,MATURE,XBOX
Tampflex,59.31,314,ADULT,PS4
Home Ing,76.56,844,ADULT,PC
Flexidy,76.29,981,EVERYONE,PS4
Duobam,53.11,958,ADULT,PC
Kanlam,71.85,364,E_CHILD,XBOX
Opela,57.45,93,TEEN,PC
Zaam-Dox,35.45,942,TEEN,XBOX
Zathin,38.83,654,ADULT,PC
Daltfresh,71.81,575,E_CHILD,PS4
Tres-Zap,63.87,642,E_TEN,XBOX
Zoolab,51.01,656,ADULT,XBOX
Zoolab,49.88,561,E_CHILD,PC
Pannier,24.77,977,MATURE,PC
Cardguard,64.82,961,ADULT,XBOX
Ventosanzap,75.8,760,MATURE,XBOX
Stronghold,24.83,960,MATURE,PS4
Stim,41.41,77,E_TEN,PS4
Fintone,40.12,202,EVERYONE,PC
Tres-Zap,21.45,274,E_CHILD,PC
Stringtough,43.31,196,EVERYONE,XBOX
Zontrax,37.49,540,ADULT,XBOX
Vagram,36.61,518,MATURE,PC
Zathin,37.49,93,MATURE,PC
Solarbreeze,73.34,703,E_CHILD,XBOX
Trippledex,34.32,45,E_CHILD,XBOX
Prodder,51.29,981,E_TEN,XBOX
Y-Solowarm,73.95,934,E_TEN,PC
Otcom,63.47,331,EVERYONE,XBOX
Lotstring,61.78,183,MATURE,PC
Tempsoft,53.61,309,EVERYONE,XBOX
Quo Lux,21.55,36,ADULT,PS4
Wrapsafe,43.57,864,E_CHILD,PC
Cookley,37.91,222,E_CHILD,PS4
Flexidy,32.64,659,ADULT,PC
Voyatouch,77.83,440,E_TEN,PS4
Fintone,56.34,790,TEEN,XBOX
Job,41.12,882,TEEN,PC
Voyatouch,33.75,264,MATURE,PC
Latlux,76.09,561,MATURE,PS4
Ventosanzap,38.39,964,EVERYONE,PC
Cardify,34.21,881,TEEN,PC
Bitwolf,56.02,571,MATURE,XBOX
Konklux,55.16,586,E_CHILD,XBOX
Sub-Ex,77.91,663,MATURE,XBOX
Stringtough,69.5,43,ADULT,XBOX
Job,54.21,15,EVERYONE,XBOX
Ventosanzap,61.87,907,E_CHILD,PS4
Alphazap,33.17,11,MATURE,PS4
Flowdesk,54.12,325,ADULT,PC
Trippledex,45.08,474,ADULT,PC
Job,58.98,473,E_CHILD,PC
Viva,49.28,333,EVERYONE,PS4
Treeflex,70.63,189,MATURE,PS4
Bitwolf,73.99,211,ADULT,XBOX
Tampflex,57.72,132,EVERYONE,PC
Tempsoft,23.01,719,EVERYONE,PC
Prodder,79.16,354,E_CHILD,XBOX
Subin,58.32,79,MATURE,XBOX
Namfix,40.82,425,E_CHILD,PS4
Cardify,42.64,700,MATURE,PS4
Konklux,45.62,312,MATURE,PC
Wrapsafe,70.55,922,TEEN,PC
Voltsillam,70.82,943,E_CHILD,PS4
Konklab,33.29,543,TEEN,PC
Mat Lam Tam,30.95,483,E_TEN,PS4
Temp,72.09,715,TEEN,PS4
Biodex,64.88,198,MATURE,XBOX
Y-Solowarm,68.42,106,E_CHILD,PS4
Daltfresh,30.6,315,TEEN,PC
Regrant,59.46,799,EVERYONE,XBOX
Holdlamis,73.53,237,EVERYONE,PS4
Flexidy,36.52,220,E_CHILD,PC
Andalax,52.16,120,E_TEN,PS4
Daltfresh,54.39,83,ADULT,XBOX
Sonair,26.99,138,TEEN,XBOX
Wrapsafe,30.87,841,EVERYONE,PS4
Toughjoyfax,29.55,912,MATURE,PC
Veribet,68.05,952,ADULT,XBOX
Ventosanzap,28.9,86,E_CHILD,PS4
Fix San,62.78,441,MATURE,XBOX
Y-Solowarm,45.22,907,E_CHILD,XBOX
Solarbreeze,43.75,986,EVERYONE,XBOX
Overhold,27.35,439,MATURE,PC
Zontrax,66.32,426,TEEN,XBOX
Regrant,44.57,950,E_TEN,XBOX
Span,68.46,740,E_TEN,PS4
Y-Solowarm,28.18,660,MATURE,XBOX
Zaam-Dox,34.52,726,TEEN,PS4
Temp,50.8,993,ADULT,PC
Gembucket,32.77,652,E_TEN,PC
Subin,46.52,971,E_CHILD,PS4
Domainer,53.45,392,ADULT,PS4
Latlux,25.08,999,MATURE,PS4
Sonsing,46.48,190,TEEN,XBOX
Tempsoft,76.05,919,MATURE,PS4
Sonair,49.49,865,EVERYONE,PC
Zaam-Dox,56.65,906,TEEN,PC
Zathin,68.6,699,TEEN,XBOX
Duobam,41.45,900,ADULT,PS4
Job,66.26,77,MATURE,PC
Konklab,69.76,14,TEEN,PS4
Sonsing,51.99,350,E_CHILD,PC
Prodder,60.45,589,EVERYONE,XBOX
Keylex,62.07,920,E_CHILD,PC
Alpha,61.57,334,TEEN,PC
Y-Solowarm,26.44,257,E_CHILD,XBOX
Zathin,68.44,21,E_CHILD,PS4
Bytecard,39.6,276,ADULT,PS4
Lotstring,67.12,482,EVERYONE,PS4
Subin,54.12,444,EVERYONE,PC
Hatity,67.31,513,E_TEN,XBOX
Lotstring,39.37,968,ADULT,PS4
Fintone,38.31,783,MATURE,PC
Flexidy,59.62,468,E_CHILD,PS4
Span,62.13,877,MATURE,PS4
Stim,72.79,308,MATURE,XBOX
Subin,45.11,412,TEEN,PC
Stronghold,62.15,283,TEEN,PC
Hatity,32.61,364,TEEN,XBOX
Daltfresh,75.6,133,TEEN,PS4
It,27.24,503,TEEN,PC
Zamit,22.84,688,EVERYONE,XBOX
Gembucket,25.14,73,TEEN,PC
Keylex,44.55,858,E_TEN,PC
Zoolab,48.07,408,E_CHILD,PS4
Overhold,40.11,604,TEEN,PS4
Gembucket,59.25,589,E_TEN,PC
Bigtax,65.54,868,EVERYONE,PC
Tampflex,57.59,704,ADULT,PS4
Y-find,72.31,311,E_CHILD,PS4
Daltfresh,59.12,948,MATURE,PS4
Wrapsafe,32.53,649,E_CHILD,XBOX
Alpha,35.76,25,TEEN,PC
Tampflex,42.15,281,ADULT,XBOX
Pannier,76.92,908,TEEN,PC
Holdlamis,52.55,42,E_CHILD,XBOX
Stringtough,79.81,626,EVERYONE,PS4
Greenlam,50.34,125,MATURE,XBOX
Stronghold,50.84,525,EVERYONE,PC
It,26.48,88,EVERYONE,XBOX
Bytecard,22.17,91,E_CHILD,PC
Job,76.31,230,E_CHILD,PS4
Duobam,30.94,147,TEEN,PC
Kanlam,24.58,422,E_TEN,PS4
Daltfresh,66.15,364,EVERYONE,XBOX
Alpha,48.48,466,ADULT,PC
Redhold,25.61,752,E_CHILD,XBOX
Andalax,30.83,64,E_CHILD,XBOX
Namfix,36.96,1000,ADULT,PC
Kanlam,46.41,524,EVERYONE,PC
Flexidy,58.32,289,ADULT,XBOX
Sonsing,71.97,750,TEEN,PS4
Subin,25.69,423,TEEN,PC
Quo Lux,38.56,831,ADULT,XBOX
Ronstring,58.4,281,E_TEN,PS4
Lotstring,60.38,967,TEEN,XBOX
Veribet,65.32,121,TEEN,PS4
Bitwolf,72.77,571,E_TEN,PS4
Sonsing,29.8,603,EVERYONE,XBOX
Viva,24.49,489,E_TEN,PC
Tres-Zap,26.6,863,E_TEN,PC
Overhold,46.56,120,E_TEN,XBOX
Latlux,48.4,931,TEEN,PS4
Tin,65.09,803,MATURE,PS4
Daltfresh,45.6,572,EVERYONE,PC
Flexidy,77.29,843,ADULT,XBOX
Fintone,36.63,837,MATURE,XBOX
Otcom,68.02,738,TEEN,PC
Zathin,41.49,642,ADULT,XBOX
Alphazap,64.26,846,E_CHILD,PS4
Konklux,67.3,964,MATURE,PC
Home Ing,69.8,190,E_TEN,PS4
Voyatouch,25.66,484,E_TEN,PC
Stim,70.11,704,E_TEN,PS4
Zathin,23.59,245,ADULT,XBOX
Cardify,79.84,824,TEEN,PC
Konklab,33.24,807,E_CHILD,PS4
Vagram,63.25,949,E_TEN,PS4
Konklux,43.03,142,TEEN,PC
Prodder,38.74,706,MATURE,PC
Y-find,22.04,428,ADULT,PS4
Sonsing,48.04,486,MATURE,PC
Viva,26.8,354,EVERYONE,XBOX
Gembucket,78.99,620,MATURE,XBOX
Bytecard,69.91,105,MATURE,PC
Fix San,46.45,352,TEEN,PS4
It,48.85,695,E_CHILD,PC
Matsoft,48.57,589,TEEN,XBOX
Opela,52.14,705,TEEN,PC
Tempsoft,66.19,895,TEEN,XBOX
Transcof,35.92,972,EVERYONE,PS4
Y-find,72.65,432,MATURE,PS4
Flowdesk,38.8,147,EVERYONE,PC
Greenlam,27.26,644,E_CHILD,XBOX
Y-Solowarm,53.24,713,MATURE,PS4
Span,65.85,228,ADULT,PS4
Veribet,64.73,118,E_CHILD,PC
Trippledex,65.43,218,MATURE,XBOX
Hatity,57.06,870,TEEN,PC
Zamit,42.86,111,TEEN,XBOX
Cardguard,65.8,721,EVERYONE,PS4
Asoka,30.03,809,ADULT,XBOX
Cookley,56.87,152,MATURE,XBOX
Biodex,62.14,985,MATURE,PC
Pannier,47.22,149,EVERYONE,XBOX
Tresom,63.76,234,ADULT,PC
Vagram,64.32,249,EVERYONE,PC
Lotstring,43.05,652,E_TEN,PC
Kanlam,53.9,593,EVERYONE,PS4
Cookley,29.02,691,MATURE,PS4
Bamity,46.39,164,E_CHILD,XBOX
Latlux,45.46,940,E_TEN,PC
Bigtax,57.54,835,EVERYONE,PC
Veribet,51.01,180,E_CHILD,PS4
Y-Solowarm,36.13,56,E_CHILD,PS4
Greenlam,59.32,404,ADULT,XBOX
Cardguard,76.98,433,MATURE,PS4
Tresom,62.26,757,E_CHILD,PS4
Rank,47.41,874,EVERYONE,PS4
Flowdesk,67.4,193,TEEN,PC
Konklux,68.49,117,TEEN,PC
Home Ing,37.89,997,E_TEN,XBOX
Redhold,74.45,291,MATURE,PS4
Sonair,52.76,702,E_TEN,XBOX
Ventosanzap,24.38,897,EVERYONE,PS4
Treeflex,43.46,905,EVERYONE,PS4
Greenlam,36.47,843,E_TEN,PC
Opela,63.23,719,TEEN,PS4
Voltsillam,30.37,411,TEEN,PC
Subin,23.9,996,EVERYONE,XBOX
Alpha,74.59,941,EVERYONE,PS4
Voltsillam,49.28,96,EVERYONE,XBOX
Sonsing,34.65,90,ADULT,PC
Y-Solowarm,47.53,186,E_TEN,XBOX
Holdlamis,67.89,217,TEEN,XBOX
Asoka,21.89,104,E_CHILD,PS4
Stim,64.62,239,MATURE,PC
Transcof,33.83,919,ADULT,PS4
Fixflex,53.07,988,TEEN,XBOX
Latlux,40.56,507,EVERYONE,XBOX
Voltsillam,31.19,538,EVERYONE,PS4
Viva,64.87,406,E_CHILD,PS4
Fintone,22.71,906,EVERYONE,PS4
Ronstring,31.87,776,TEEN,PS4
Viva,57.33,901,E_TEN,PC
Fintone,63.56,49,ADULT,XBOX
Y-Solowarm,70.57,348,TEEN,XBOX
Y-find,33.39,915,EVERYONE,PC
Sonsing,42.57,794,E_TEN,XBOX
Subin,68.58,979,MATURE,PS4
Holdlamis,78.59,656,TEEN,PC
Lotstring,79.52,550,EVERYONE,PS4
Asoka,63.66,988,EVERYONE,XBOX
Job,54.51,808,ADULT,PC
It,47.73,718,EVERYONE,PC
Otcom,45.44,423,ADULT,XBOX
Namfix,78.73,417,E_TEN,PC
Keylex,65.61,488,E_TEN,PS4
Cardguard,61.0,379,MATURE,PS4
Ventosanzap,56.61,736,MATURE,PC
Subin,77.39,786,TEEN,PS4
Voltsillam,29.76,474,E_TEN,PC
Fixflex,32.93,740,TEEN,PS4
Namfix,27.59,953,E_TEN,PS4
Bitchip,30.04,507,E_TEN,PC
Keylex,49.32,209,ADULT,PC
Sonair,73.38,10,E_CHILD,PS4
Cardguard,72.21,913,EVERYONE,PS4
Stim,31.1,866,MATURE,XBOX
Alpha,31.48,758,ADULT,XBOX
Konklux,23.46,168,EVERYONE,XBOX
Job,70.89,892,E_TEN,PS4
Duobam,36.05,838,E_TEN,XBOX
Cardify,22.77,363,EVERYONE,XBOX
Voyatouch,41.52,349,EVERYONE,XBOX
Konklux,78.77,870,ADULT,XBOX
Alpha,58.64,856,MATURE,XBOX
Zoolab,44.9,321,TEEN,XBOX
Flexidy,78.12,640,TEEN,PS4
Latlux,44.93,969,MATURE,PC
Andalax,73.97,692,E_TEN,XBOX
Y-find,21.81,249,MATURE,XBOX
Wrapsafe,70.66,160,TEEN,XBOX
Prodder,79.03,185,MATURE,PS4
Tempsoft,43.72,76,EVERYONE,XBOX
Overhold,77.5,972,E_CHILD,XBOX
Zoolab,43.91,253,ADULT,XBOX
Y-find,26.77,210,ADULT,PC
Otcom,41.42,571,ADULT,XBOX
Opela,26.26,577,E_CHILD,XBOX
Voltsillam,49.5,968,ADULT,PC
Fintone,52.05,971,EVERYONE,PS4
Home Ing,20.09,638,MATURE,XBOX
Tresom,50.41,917,TEEN,PC
Biodex,43.91,128,EVERYONE,PC
Latlux,35.55,559,ADULT,PS4
Fintone,66.95,447,E_TEN,XBOX
Cookley,33.56,731,ADULT,XBOX
Zontrax,70.1,116,MATURE,XBOX
Andalax,30.27,615,ADULT,PS4
Otcom,74.14,763,MATURE,XBOX
Redhold,23.41,261,E_CHILD,PS4
Viva,22.01,716,E_TEN,XBOX
Keylex,33.75,112,MATURE,PC
Zamit,30.31,271,TEEN,XBOX
Biodex,39.18,195,EVERYONE,XBOX
Lotstring,32.19,738,ADULT,XBOX
Veribet,63.75,895,TEEN,PC
Redhold,35.43,877,MATURE,PC
Lotstring,50.8,230,ADULT,PS4
Stronghold,76.42,430,ADULT,PC
Fintone,43.51,497,ADULT,PC
Wrapsafe,61.74,339,MATURE,XBOX
Trippledex,44.28,172,E_TEN,XBOX
Duobam,22.23,755,TEEN,PS4
Trippledex,48.87,93,MATURE,XBOX
Greenlam,34.52,303,ADULT,PC
Veribet,28.34,775,ADULT,PC
Holdlamis,21.3,396,E_CHILD,PC
Tres-Zap,37.73,832,EVERYONE,PS4
Transcof,70.16,944,E_TEN,PC
Temp,44.11,313,TEEN,PS4
Viva,73.44,45,E_CHILD,PC
Zathin,68.37,463,E_CHILD,PC
Andalax,50.7,246,ADULT,XBOX
Tampflex,23.25,137,E_CHILD,XBOX
Stronghold,47.8,180,ADULT,XBOX
Zontrax,77.7,34,TEEN,PC
Job,21.07,750,EVERYONE,PS4
Alpha,26.44,901,E_CHILD,XBOX
Span,70.88,28,MATURE,PS4
Trippledex,69.95,703,MATURE,XBOX
Flowdesk,54.64,5,E_TEN,PC
Zontrax,60.72,318,E_CHILD,PC
Voyatouch,29.81,179,MATURE,XBOX
Zaam-Dox,23.27,764,ADULT,PS4
It,64.82,757,ADULT,XBOX
Cardguard,53.26,185,TEEN,PC
Prodder,45.1,855,ADULT,XBOX
It,31.59,371,E_CHILD,PS4
Ronstring,76.52,794,MATURE,PC
Zamit,33.2,806,ADULT,PS4
Cardify,34.48,308,TEEN,XBOX
Zaam-Dox,59.57,358,TEEN,PS4
Treeflex,75.45,13,E_CHILD,PC
Sub-Ex,29.68,5,E_TEN,PC
Bigtax,68.08,208,MATURE,PC
Tin,60.65,165,MATURE,PS4
Alphazap,65.41,370,EVERYONE,XBOX
Quo Lux,54.73,135,ADULT,XBOX
Quo Lux,59.72,573,E_CHILD,PC
Asoka,29.61,456,E_CHILD,XBOX
Y-Solowarm,40.42,726,EVERYONE,PS4
Regrant,73.37,426,E_CHILD,XBOX
Trippledex,29.27,157,E_TEN,PS4
Bitwolf,23.66,63,E_TEN,PS4
Greenlam,74.67,32,E_TEN,PC
Fix San,28.32,458,E_TEN,PC
Y-find,41.68,705,E_CHILD,XBOX
Konklab,20.07,80,ADULT,PS4
Opela,23.05,418,EVERYONE,PS4
Ventosanzap,29.45,762,E_CHILD,XBOX
Solarbreeze,27.38,754,ADULT,PS4
Tempsoft,51.31,436,E_CHILD,PC
It,38.7,326,MATURE,PC
Viva,53.67,254,MATURE,PC
Voltsillam,77.7,618,EVERYONE,PS4
Home Ing,29.83,229,ADULT,XBOX
Duobam,77.59,887,EVERYONE,XBOX
Bitwolf,49.26,383,TEEN,PC
Alphazap,52.96,860,E_CHILD,PC
Konklab,51.52,257,EVERYONE,PS4
Subin,44.12,465,MATURE,PC
Duobam,68.79,885,TEEN,PS4
Solarbreeze,77.33,719,E_CHILD,XBOX
Transcof,57.23,378,E_TEN,XBOX
Tempsoft,37.13,375,E_CHILD,XBOX
Tin,67.13,110,TEEN,XBOX
Zaam-Dox,69.26,439,EVERYONE,PS4
Hatity,62.08,165,E_TEN,PC
Veribet,61.8,856,MATURE,XBOX
Konklab,30.76,404,MATURE,PS4
Hatity,69.91,679,E_TEN,PC
Fix San,75.6,622,ADULT,PS4
Home Ing,48.38,615,MATURE,PC
Tampflex,65.96,525,E_CHILD,PS4
Solarbreeze,76.76,354,ADULT,PS4
Alphazap,54.27,755,ADULT,XBOX
Hatity,63.86,388,TEEN,PS4
Veribet,61.71,268,EVERYONE,PC
It,29.96,729,MATURE,PS4
Voyatouch,47.31,133,ADULT,XBOX
Daltfresh,37.35,78,ADULT,PS4
Holdlamis,31.76,883,EVERYONE,PS4
Cookley,75.25,474,ADULT,PC
Sub-Ex,69.93,792,EVERYONE,PC
Redhold,25.97,861,E_CHILD,XBOX
Cardify,31.98,368,TEEN,PC
Transcof,79.47,493,E_CHILD,PS4
Viva,44.98,905,E_CHILD,XBOX
Stim,74.31,704,EVERYONE,PC
Veribet,62.42,181,E_CHILD,XBOX
Tres-Zap,26.33,341,E_CHILD,PC
Solarbreeze,52.4,620,MATURE,PS4
Zathin,74.56,583,TEEN,XBOX
Voyatouch,67.07,706,TEEN,XBOX
Alpha,70.89,680,EVERYONE,PC
Konklab,50.7,904,MATURE,PC
Bitwolf,55.05,253,ADULT,PS4
Home Ing,30.37,535,TEEN,PS4
Ronstring,39.35,361,MATURE,XBOX
Flowdesk,42.29,799,E_CHILD,PC
Fintone,52.87,854,ADULT,PC
Bytecard,66.22,233,E_TEN,PS4
Keylex,20.92,437,ADULT,PS4
Ventosanzap,27.51,957,TEEN,PC
Solarbreeze,53.52,374,EVERYONE,XBOX
Aerified,35.35,355,E_TEN,PS4
Sub-Ex,59.05,515,EVERYONE,XBOX
Y-find,28.83,457,ADULT,PS4
Stronghold,66.89,250,ADULT,XBOX
Transcof,67.09,283,E_CHILD,XBOX
Alpha,32.86,391,MATURE,PC
Wrapsafe,20.87,939,ADULT,PS4
Job,23.14,82,MATURE,PC
Home Ing,33.16,7,EVERYONE,PC
It,62.07,108,E_CHILD,PC
Fixflex,63.02,920,MATURE,PC
Voyatouch,77.78,470,TEEN,PS4
Zoolab,70.57,441,MATURE,XBOX
Konklab,24.75,847,TEEN,PC
Fix San,54.95,521,ADULT,PS4
Solarbreeze,77.64,58,EVERYONE,XBOX
Zamit,23.21,186,TEEN,XBOX
Lotstring,21.53,341,E_CHILD,PC
Pannier,34.1,341,EVERYONE,PS4
Alpha,23.42,693,E_TEN,PS4
Asoka,51.73,908,ADULT,PC
Alphazap,75.87,618,ADULT,PS4
Home Ing,59.88,137,E_TEN,PC
Regrant,35.21,863,TEEN,XBOX
Alphazap,61.99,720,ADULT,PC
Viva,61.34,798,EVERYONE,PC
Sonsing,52.73,419,EVERYONE,XBOX
Fixflex,53.27,825,MATURE,PC
Regrant,42.59,315,MATURE,PS4
Temp,67.08,754,TEEN,PC
Asoka,60.84,48,ADULT,PS4
Voltsillam,70.41,184,EVERYONE,PS4
Cardguard,77.54,606,ADULT,PS4
Tin,37.25,88,E_CHILD,XBOX
Zoolab,25.3,762,TEEN,PS4
Solarbreeze,64.58,652,MATURE,PC
Tres-Zap,65.93,550,E_CHILD,PS4
Sub-Ex,78.24,775,E_CHILD,PC
Tres-Zap,39.1,371,E_CHILD,XBOX
Veribet,79.73,513,MATURE,PC
Voltsillam,74.1,925,MATURE,PC
Lotstring,39.29,909,ADULT,PS4
Bamity,41.04,37,E_TEN,XBOX
Bamity,25.48,260,ADULT,PS4
Alpha,59.78,389,ADULT,PS4
Y-find,28.46,377,E_TEN,PS4
Fintone,48.96,714,EVERYONE,PS4
Fintone,43.34,757,E_CHILD,PS4
It,49.89,285,E_CHILD,XBOX
Job,50.32,476,E_CHILD,PS4
Ventosanzap,25.05,731,E_TEN,XBOX
Latlux,29.01,734,E_TEN,PS4
Keylex,53.15,265,E_TEN,PS4
Voyatouch,22.06,303,EVERYONE,PC
Fix San,48.39,474,TEEN,PC
Tin,42.08,512,ADULT,PC
Voltsillam,55.17,734,E_CHILD,PS4
Hatity,40.25,902,TEEN,PC
Prodder,59.83,148,MATURE,PS4
Fintone,50.97,596,EVERYONE,PS4
Flowdesk,24.88,474,TEEN,XBOX
Stringtough,54.9,341,E_TEN,XBOX
Tempsoft,26.7,119,MATURE,PS4
Solarbreeze,29.99,682,MATURE,PS4
Span,51.15,910,E_CHILD,XBOX
Sonsing,52.09,522,TEEN,PS4
Biodex,36.8,111,E_TEN,XBOX
Sonair,52.24,778,MATURE,PS4
Cookley,63.17,550,ADULT,PC
Bitwolf,64.55,576,E_CHILD,XBOX
Bamity,37.69,801,EVERYONE,XBOX
Y-find,75.98,606,E_TEN,PS4
Lotlux,26.66,391,TEEN,XBOX
Zathin,61.93,957,E_CHILD,PC
Zaam-Dox,34.71,988,EVERYONE,PS4
Bigtax,54.9,789,E_CHILD,XBOX
Fintone,50.35,318,E_CHILD,XBOX
Y-find,58.48,539,E_CHILD,XBOX
Tres-Zap,54.3,347,E_TEN,XBOX
Flowdesk,38.26,16,ADULT,PC
Solarbreeze,65.54,966,TEEN,PC
Tres-Zap,61.87,716,ADULT,PS4
Bigtax,41.52,866,MATURE,PC
Flexidy,67.11,487,E_CHILD,XBOX
Voltsillam,62.76,552,EVERYONE,PS4
Trippledex,49.4,314,TEEN,PS4
It,67.86,1000,ADULT,PC
Bamity,52.1,928,E_CHILD,XBOX
Greenlam,62.69,370,E_TEN,XBOX
Redhold,27.2,674,TEEN,PS4
Y-Solowarm,20.77,393,TEEN,PC
Voltsillam,76.14,568,MATURE,PS4
Stim,72.74,27,MATURE,PS4
Tres-Zap,77.49,593,E_TEN,XBOX
Bitwolf,56.89,621,EVERYONE,XBOX
It,59.63,672,ADULT,XBOX
Transcof,54.07,669,MATURE,XBOX
Temp,53.92,42,EVERYONE,XBOX
Overhold,43.0,590,ADULT,XBOX
Zamit,41.17,720,MATURE,PC
Redhold,26.74,396,E_CHILD,XBOX
Zoolab,74.07,589,E_TEN,PS4
Duobam,44.05,128,EVERYONE,XBOX
Job,56.5,797,E_TEN,PS4
Rank,51.3,290,ADULT,PC
Toughjoyfax,37.76,962,E_TEN,PS4
Subin,48.02,976,MATURE,XBOX
Ronstring,53.87,386,EVERYONE,PS4
Wrapsafe,55.15,719,E_CHILD,XBOX
Alpha,58.13,747,MATURE,PS4
Greenlam,39.62,27,E_CHILD,XBOX
Andalax,65.84,91,TEEN,XBOX
Fixflex,27.11,803,EVERYONE,PS4
Tampflex,69.97,35,MATURE,PS4
Tres-Zap,31.25,711,E_TEN,XBOX
Home Ing,73.15,735,MATURE,PC
Temp,48.88,523,MATURE,XBOX
Kanlam,29.49,727,E_TEN,PS4
Job,24.65,757,ADULT,PS4
Kanlam,60.21,186,TEEN,XBOX
Cardify,65.7,14,E_CHILD,PS4
Zathin,61.68,747,ADULT,PC
Tin,67.76,529,E_TEN,PC
Daltfresh,43.17,547,E_TEN,PS4
Temp,25.31,833,EVERYONE,XBOX
Ventosanzap,56.48,340,EVERYONE,XBOX
Fintone,26.09,483,ADULT,XBOX
Fintone,56.99,261,EVERYONE,PC
Subin,56.94,866,ADULT,XBOX
Bamity,23.68,295,TEEN,PS4
Sonair,45.16,287,E_TEN,PS4
Treeflex,37.06,921,EVERYONE,XBOX
Solarbreeze,45.03,86,E_CHILD,PC
Bamity,31.43,437,E_TEN,PS4
Gembucket,25.41,839,E_CHILD,PC
Sonair,31.09,640,ADULT,PC
Keylex,54.51,487,EVERYONE,PS4
Rank,31.35,484,E_TEN,PS4
Regrant,23.54,90,MATURE,PC
Stronghold,46.22,214,TEEN,PS4
Greenlam,22.24,540,ADULT,PC
Voyatouch,64.5,985,ADULT,XBOX
Biodex,35.55,995,E_TEN,PC
Bamity,78.4,97,E_CHILD,PS4
Viva,34.93,157,ADULT,XBOX
Ronstring,76.64,603,EVERYONE,PS4
Home Ing,73.97,710,TEEN,XBOX
Stim,38.52,698,ADULT,PS4
Lotstring,47.52,231,EVERYONE,PS4
Lotlux,46.7,765,EVERYONE,XBOX
Domainer,79.89,292,MATURE,XBOX
Viva,47.61,252,EVERYONE,PS4
Tres-Zap,75.86,459,TEEN,PC
Opela,20.06,879,EVERYONE,PC
Keylex,67.39,515,E_TEN,PC
Zontrax,58.08,178,EVERYONE,PS4
Bigtax,58.31,383,ADULT,XBOX
Tin,26.47,5,E_TEN,XBOX
Tres-Zap,52.97,534,ADULT,XBOX
Hatity,54.73,22,TEEN,PC
Y-Solowarm,31.79,65,ADULT,XBOX
Lotlux,70.44,581,TEEN,XBOX
Fintone,55.1,128,E_TEN,PC
Andalax,68.79,81,EVERYONE,PC
Zaam-Dox,78.5,203,E_TEN,PC
Fintone,63.36,940,ADULT,XBOX
Alpha,27.64,386,E_TEN,PS4
Home Ing,63.24,287,E_CHILD,PC
Cookley,76.97,400,E_CHILD,PS4
Opela,23.68,250,MATURE,PS4
Bitchip,38.89,190,MATURE,XBOX
Asoka,32.34,522,TEEN,XBOX
Bitchip,43.86,217,ADULT,PS4
Kanlam,63.93,288,TEEN,PC
Trippledex,47.23,817,TEEN,PC
Y-find,37.93,695,ADULT,PC
Y-Solowarm,73.33,724,EVERYONE,PS4
It,73.27,646,E_TEN,PS4
Holdlamis,78.35,253,E_CHILD,PS4
Pannier,29.07,864,ADULT,PC
Flexidy,43.42,759,MATURE,PS4
Stringtough,77.89,500,ADULT,PC
Bytecard,51.09,496,TEEN,PC
Y-Solowarm,38.92,820,E_CHILD,PS4
Job,43.64,143,TEEN,PS4
Sonsing,53.64,672,TEEN,XBOX
Stronghold,37.33,317,E_TEN,PS4
Transcof,65.33,559,E_CHILD,XBOX
Lotstring,29.7,174,ADULT,PC
Ventosanzap,56.47,923,E_TEN,PS4
Viva,33.97,560,TEEN,XBOX
Bitchip,34.44,845,E_TEN,XBOX
Sub-Ex,51.75,174,ADULT,XBOX
Fixflex,59.29,292,E_CHILD,PC
Temp,29.44,925,ADULT,PS4
Quo Lux,33.68,889,E_CHILD,XBOX
Asoka,74.71,19,ADULT,PC
Tampflex,30.37,661,ADULT,PS4
Sonair,61.45,194,TEEN,PC
Zamit,72.22,713,ADULT,PS4
Sub-Ex,68.34,730,ADULT,PC
Latlux,38.53,265,EVERYONE,PS4
It,38.66,803,MATURE,XBOX
Treeflex,50.29,724,TEEN,XBOX
Konklux,68.41,681,ADULT,PS4
Stim,70.45,613,TEEN,PC
Stringtough,49.66,667,EVERYONE,PS4
Zaam-Dox,75.98,607,E_CHILD,PC
Biodex,40.73,684,MATURE,PC
Aerified,51.76,807,E_CHILD,PC
Wrapsafe,56.68,736,E_CHILD,PC
Job,47.21,924,ADULT,PS4
Treeflex,60.4,905,ADULT,PC
Viva,46.07,497,E_TEN,PS4
Cookley,54.63,116,E_CHILD,XBOX
Bigtax,59.94,337,ADULT,XBOX
Mat Lam Tam,71.31,373,MATURE,PC
Cookley,78.45,115,E_CHILD,PS4
Fix San,22.33,222,E_CHILD,PS4
Bigtax,70.25,277,EVERYONE,PS4
Daltfresh,73.55,973,E_CHILD,PS4
Duobam,49.24,511,EVERYONE,PS4
Flexidy,63.91,64,MATURE,XBOX
Stringtough,21.65,486,E_CHILD,PS4
Wrapsafe,78.04,8,MATURE,PS4
Holdlamis,66.64,610,TEEN,XBOX
Prodder,62.49,599,EVERYONE,PC
Matsoft,38.55,91,TEEN,XBOX
Sonair,64.02,273,TEEN,PC
Bigtax,73.71,856,MATURE,PS4
Job,48.08,332,E_TEN,XBOX
Asoka,70.81,92,E_TEN,PS4
Tempsoft,41.69,7,ADULT,PS4
Temp,33.9,845,E_TEN,PC
Holdlamis,42.79,107,E_CHILD,PS4
Vagram,53.13,196,EVERYONE,PS4
Viva,50.14,970,E_TEN,XBOX
Sonsing,60.88,555,E_TEN,XBOX
Tin,33.54,1000,TEEN,PS4
Veribet,47.12,971,MATURE,XBOX
Sonair,63.4,776,EVERYONE,PC
Konklab,70.79,826,E_TEN,PS4
Flowdesk,57.3,836,EVERYONE,XBOX
Tin,31.58,89,E_TEN,PC
Opela,73.25,864,EVERYONE,XBOX
Viva,24.31,161,E_TEN,XBOX
Flexidy,57.64,516,E_CHILD,PS4
Tempsoft,56.09,250,MATURE,PS4
Duobam,75.46,202,TEEN,PS4
Overhold,72.68,190,EVERYONE,PS4
Regrant,53.57,341,TEEN,XBOX
Prodder,40.25,396,TEEN,PS4
Trippledex,54.62,69,E_TEN,PC
Voyatouch,43.45,963,TEEN,PS4
Mat Lam Tam,60.32,792,MATURE,PS4
Viva,48.11,890,ADULT,XBOX
Pannier,42.36,364,MATURE,XBOX
Konklab,38.14,160,TEEN,PC
Stringtough,21.55,722,TEEN,XBOX
Sonsing,72.4,433,TEEN,XBOX
Trippledex,54.91,810,E_CHILD,PS4
Duobam,55.21,597,ADULT,PS4
Cardguard,73.94,437,ADULT,PC
Opela,70.49,472,TEEN,PS4
Vagram,29.97,830,MATURE,PC
Tin,45.49,585,TEEN,PC
Tampflex,37.66,327,E_CHILD,PS4
Cardify,24.32,682,EVERYONE,XBOX
Job,24.54,367,MATURE,XBOX
Pannier,28.4,533,E_TEN,PC
Mat Lam Tam,30.61,286,TEEN,XBOX
Job,49.59,122,TEEN,XBOX
Tampflex,52.48,415,EVERYONE,PC
Asoka,28.98,466,TEEN,XBOX
Zathin,44.42,574,E_TEN,PC
Pannier,38.61,725,EVERYONE,XBOX
Bitchip,62.0,808,EVERYONE,XBOX
Sonsing,67.18,475,EVERYONE,PC
Stim,36.02,210,MATURE,XBOX
Vagram,58.25,380,MATURE,PS4
Namfix,36.74,565,MATURE,PC
It,44.28,634,ADULT,PC
Flowdesk,25.26,886,MATURE,PS4
Quo Lux,49.92,640,ADULT,PS4
Bigtax,71.03,92,EVERYONE,XBOX
Stringtough,61.13,884,EVERYONE,PC
Solarbreeze,32.08,39,E_TEN,XBOX
Daltfresh,48.53,84,ADULT,PS4
Kanlam,38.81,158,MATURE,PC
Temp,31.99,588,E_TEN,PS4
Namfix,28.5,879,EVERYONE,PS4
Zamit,22.47,885,E_CHILD,PC
Opela,69.41,142,MATURE,XBOX
Domainer,47.1,557,ADULT,PS4
Stringtough,47.95,924,E_TEN,XBOX
Keylex,56.19,222,E_TEN,PC
Konklab,73.75,591,E_TEN,XBOX
Trippledex,29.81,937,E_CHILD,XBOX
Voyatouch,63.91,879,E_CHILD,XBOX
Asoka,65.98,456,E_TEN,XBOX
Transcof,40.22,143,E_CHILD,PS4
Matsoft,69.6,832,EVERYONE,PS4
Bytecard,38.66,861,ADULT,PC
Lotstring,33.02,533,ADULT,PC
Pannier,72.9,841,E_CHILD,PS4
Bitchip,50.81,931,EVERYONE,PC
Tin,57.94,706,TEEN,PS4
Span,56.2,290,EVERYONE,PS4
Cardify,31.43,303,TEEN,XBOX
Otcom,63.66,458,EVERYONE,PC
Quo Lux,30.93,875,E_CHILD,PS4
Stringtough,79.52,31,E_CHILD,XBOX
Sonair,65.37,566,E_TEN,PC
Redhold,56.04,721,MATURE,XBOX
Daltfresh,69.54,673,MATURE,PS4
Cardguard,66.09,7,E_CHILD,PS4
Alphazap,78.57,658,EVERYONE,PS4
Voltsillam,26.77,344,MATURE,XBOX
Zamit,40.91,337,E_CHILD,XBOX
Kanlam,32.51,422,MATURE,XBOX
Bitwolf,35.33,90,EVERYONE,XBOX
Span,32.77,85,ADULT,PS4
Ronstring,35.22,929,MATURE,XBOX
Overhold,37.66,591,ADULT,PC
Tresom,27.85,413,EVERYONE,PC
Zoolab,62.74,344,E_CHILD,XBOX
Lotlux,66.92,530,EVERYONE,PS4
Zamit,58.18,18,E_TEN,XBOX
Stim,46.23,251,E_CHILD,XBOX
Viva,64.84,378,MATURE,PS4
Zathin,72.16,756,ADULT,PC
Lotlux,71.5,341,E_CHILD,PC
Konklux,74.36,51,E_TEN,PC
Bamity,24.39,63,EVERYONE,PC
Keylex,54.1,821,E_TEN,XBOX
Ronstring,36.14,186,E_CHILD,PC
Veribet,38.02,697,MATURE,PS4
Transcof,57.44,138,TEEN,PC
Stringtough,21.38,183,E_TEN,PS4
Greenlam,20.3,509,TEEN,PC
Pannier,32.98,217,ADULT,PC
Zaam-Dox,75.77,216,EVERYONE,PS4
Wrapsafe,75.63,528,EVERYONE,XBOX
Kanlam,42.84,166,EVERYONE,PC
Fixflex,30.46,549,E_TEN,XBOX
Cardguard,25.12,428,ADULT,XBOX
Regrant,62.65,883,E_CHILD,PC
Rank,30.84,876,MATURE,PC
Tin,42.18,22,E_TEN,PS4
Voyatouch,69.25,306,MATURE,XBOX
Konklux,67.39,717,EVERYONE,XBOX
Subin,40.63,245,ADULT,PS4
Subin,44.82,540,E_CHILD,XBOX
Tempsoft,37.49,285,EVERYONE,XBOX
Zontrax,37.91,633,ADULT,PC
Bitwolf,60.23,407,MATURE,PS4
Fintone,73.07,21,ADULT,PC
Temp,59.99,634,E_TEN,XBOX
Konklab,21.84,17,EVERYONE,XBOX
It,77.03,90,MATURE,XBOX
Cardify,63.93,120,E_CHILD,PC
Matsoft,36.24,574,MATURE,PS4
Greenlam,45.54,960,TEEN,XBOX
Regrant,37.63,811,E_CHILD,PC
Lotstring,77.85,566,MATURE,XBOX
Veribet,40.77,350,MATURE,PS4
Konklab,25.81,418,TEEN,XBOX
Job,63.43,663,MATURE,PS4
Gembucket,21.16,672,EVERYONE,PC
Cardify,68.16,662,TEEN,PC
Stronghold,64.25,505,E_TEN,PS4
Sub-Ex,48.3,162,E_CHILD,PC
Sonair,69.79,103,MATURE,PC
Voyatouch,63.76,18,ADULT,XBOX
Bytecard,52.92,948,E_CHILD,PS4
Treeflex,60.16,335,TEEN,XBOX
Tresom,56.16,773,ADULT,PC
Stringtough,60.24,599,E_CHILD,XBOX
Rank,60.0,475,ADULT,PS4
Keylex,20.25,330,TEEN,PC
Sonsing,76.93,542,ADULT,XBOX
Transcof,56.15,14,EVERYONE,XBOX
Hatity,53.69,8,E_CHILD,XBOX
Prodder,52.62,448,EVERYONE,PC
Latlux,41.42,941,EVERYONE,PS4
Opela,39.19,830,E_TEN,PS4
Flexidy,73.11,260,TEEN,PC
Voltsillam,58.23,120,EVERYONE,XBOX
Zaam-Dox,48.23,485,E_CHILD,XBOX
It,77.79,782,E_CHILD,PC
Transcof,26.51,850,EVERYONE,XBOX
Mat Lam Tam,75.78,831,E_CHILD,XBOX
Aerified,67.77,428,E_CHILD,PC
Daltfresh,54.15,75,TEEN,PS4
Andalax,63.13,242,E_TEN,PC
Flexidy,73.16,900,TEEN,PC
Tempsoft,76.55,105,E_CHILD,XBOX
Keylex,69.94,426,TEEN,XBOX
Tres-Zap,44.42,461,MATURE,PS4
Bamity,44.81,617,TEEN,PS4
Stringtough,74.68,732,EVERYONE,PS4
Holdlamis,69.41,118,EVERYONE,PC
Fix San,56.14,214,E_TEN,PS4
Zoolab,30.21,438,TEEN,PS4
Bitchip,45.81,575,TEEN,XBOX
Bytecard,25.65,156,E_CHILD,PS4
Holdlamis,24.16,616,ADULT,PS4
Zathin,52.02,840,ADULT,XBOX
Zontrax,69.7,487,ADULT,XBOX
Kanlam,31.66,179,E_TEN,PC
Cardguard,50.26,480,E_CHILD,XBOX
Tampflex,60.07,316,ADULT,PS4
Alpha,65.97,124,E_TEN,PC
Stim,42.96,703,ADULT,PC
Ronstring,56.24,456,MATURE,XBOX
Sonsing,37.18,175,E_CHILD,XBOX
Alpha,78.5,796,E_CHILD,XBOX
Namfix,44.48,554,EVERYONE,XBOX
Latlux,45.44,188,E_TEN,PC
Redhold,20.94,849,ADULT,PS4
Tin,52.0,867,MATURE,PC
Y-Solowarm,48.76,413,TEEN,XBOX
Holdlamis,32.38,285,ADULT,PC
Lotlux,57.77,424,ADULT,PC
Asoka,50.06,825,EVERYONE,XBOX
Greenlam,70.79,469,E_CHILD,PS4
Konklab,65.94,831,ADULT,PC
Asoka,36.46,925,ADULT,PC
Treeflex,37.99,616,EVERYONE,PS4
Zontrax,31.43,472,TEEN,XBOX
Tresom,49.14,707,E_CHILD,XBOX
Daltfresh,61.15,898,EVERYONE,XBOX
Fix San,52.1,835,E_CHILD,PS4
Voltsillam,38.26,939,EVERYONE,PC
Tampflex,65.26,897,E_TEN,PC
Zathin,65.89,479,TEEN,PC
Asoka,61.78,453,ADULT,PS4
Y-find,30.3,49,TEEN,PC
Lotstring,62.43,419,ADULT,XBOX
Cookley,55.02,879,MATURE,PC
Veribet,47.05,444,ADULT,PC
Home Ing,57.15,400,ADULT,PS4
Stronghold,44.39,403,E_CHILD,XBOX
Hatity,77.94,297,E_TEN,PS4
Zaam-Dox,66.98,99,MATURE,PC
Bitchip,79.28,570,MATURE,XBOX
Domainer,65.55,447,E_TEN,PS4
Bytecard,48.26,377,ADULT,PC
Flowdesk,34.93,646,MATURE,PS4
Veribet,57.98,917,MATURE,PC
