employee_id,first_name,last_name,email,gender,address,dob,phone,payRate,password,position
1073,Ambros,Kaplan,akaplan0@dagondesign.com,Male,75 Lerdahl Circle,4/24/2018,627-153-5321,4.89,Pied cormorant,Technician
4583,Ilsa,Pankhurst.,ipankhurst1@alibaba.com,Female,60566 Cordelia Parkway,12/18/2017,206-262-8802,24.93,"Ibis, sacred",Cashier
8518,Jeremias,Rheam,jrheam2@intel.com,Male,122 Dunning Hill,3/28/2018,853-253-3009,28.66,"Seal, northern elephant",Cashier
1941,Marita,Murton,mmurton3@aboutads.info,Female,304 Karstens Terrace,1/15/2018,522-479-3408,24.99,"Beaver, european",Manager
1340,Haskel,Lupson,hlupson4@bluehost.com,Male,957 Clarendon Lane,3/1/2018,719-378-5289,22.93,"Bettong, brush-tailed",Manager
659,Geoffrey,McDonough,gmcdonough5@uiuc.edu,Male,0 Utah Parkway,11/11/2018,784-313-4857,17.92,"Snake, racer",Stocker
3523,Norri,Fereday,nfereday6@webnode.com,Female,55 Swallow Plaza,7/5/2018,680-109-1829,25.53,Lizard (unidentified),Stocker
9490,Carlie,Cartmill,ccartmill7@home.pl,Female,3339 Crescent Oaks Point,6/29/2018,349-817-8534,21.7,Leopard,Manager
2482,Leicester,Killigrew,lkilligrew8@etsy.com,Male,91419 Pine View Junction,9/29/2018,786-255-0325,16.58,European stork,Technician
9952,Orson,Spittall,ospittall9@mapy.cz,Male,9 Fuller Park,4/8/2018,809-489-6133,5.77,"Albatross, waved",Manager
5949,Daven,Buddock,dbuddocka@gravatar.com,Male,363 Jackson Crossing,7/21/2018,339-312-8186,14.76,Helmeted guinea fowl,Manager
10000,Ahmad,Lorking,alorkingb@economist.com,Male,2 Darwin Point,6/5/2018,194-973-3784,19.84,"Dog, bush",Manager
397,Brianna,Found,bfoundc@mediafire.com,Female,45 La Follette Park,4/17/2018,515-485-8241,19.57,Asiatic wild ass,Cashier
2243,Rois,Campanelle,rcampanelled@bandcamp.com,Female,2 Fuller Pass,7/30/2018,695-600-5644,26.02,"Shrike, southern white-crowned",Technician
4990,Selie,Mc Gaughey,smcgaugheye@diigo.com,Female,29870 6th Lane,5/23/2018,774-837-7039,3.53,Black-capped capuchin,Technician
8281,Phillipp,Eastby,peastbyf@list-manage.com,Male,56600 Gateway Park,9/26/2018,901-619-5691,7.16,"Pie, indian tree",Manager
6064,Rinaldo,Paschek,rpaschekg@usa.gov,Male,20331 Elmside Park,2/1/2018,282-435-1663,4.36,"Pelican, eastern white",Manager
362,Janos,Proudman,jproudmanh@baidu.com,Male,630 Mifflin Trail,5/29/2018,690-922-9364,10.18,"Marmot, hoary",Manager
2534,Carmelita,Pallesen,cpalleseni@comcast.net,Female,3850 Forest Dale Lane,7/29/2018,655-682-1532,16.03,Cormorant (unidentified),Stocker
8266,Gloriana,Ryder,gryderj@pagesperso-orange.fr,Female,613 West Park,3/17/2018,177-133-9335,15.63,Common palm civet,Stocker
8673,Kennedy,Calafate,kcalafatek@geocities.jp,Male,8 Alpine Crossing,7/3/2018,601-326-7709,14.74,"Fox, grey",Cashier
9134,Kean,Edmett,kedmettl@forbes.com,Male,31 Longview Street,4/7/2018,164-125-7860,21.97,Tree porcupine,Stocker
95,Dulcine,Eseler,deselerm@ocn.ne.jp,Female,01 Rusk Crossing,2/24/2018,206-286-2584,12.71,Reindeer,Stocker
3811,Bayard,Troni,btronin@moonfruit.com,Male,70 Lukken Center,12/2/2017,216-147-8251,1.68,Black and white colobus,Technician
1775,Chadwick,Suett,csuetto@freewebs.com,Male,605 Fulton Center,1/17/2018,860-431-8707,24.15,Eleven-banded armadillo (unidentified),Cashier
8500,Regan,Bareham,rbarehamp@opensource.org,Male,40 Melrose Lane,12/9/2017,615-740-2244,18.04,"Gull, swallow-tail",Cashier
7917,Adrea,Dore,adoreq@apple.com,Female,8575 Veith Point,6/27/2018,614-807-7411,5.2,Gelada baboon,Cashier
3132,Hall,Duligal,hduligalr@infoseek.co.jp,Male,0768 Everett Crossing,1/1/2018,559-106-2025,18.7,White stork,Stocker
7762,Suzie,Foulgham,sfoulghams@csmonitor.com,Female,8 Old Shore Terrace,11/27/2018,914-388-0466,10.73,"Rattlesnake, dusky",Cashier
4875,Darryl,Sevitt,dsevittt@alexa.com,Male,5144 Oak Crossing,12/12/2017,562-659-1102,19.52,"Bear, sloth",Cashier
4552,Tod,Saunder,tsaunderu@joomla.org,Male,8 Westport Pass,5/8/2018,691-221-0400,28.14,Manatee,Manager
1057,Brigg,Attril,battrilv@google.cn,Male,08 Arizona Road,4/14/2018,650-898-5785,12.11,Indian leopard,Cashier
50,Boot,Philpots,bphilpotsw@auda.org.au,Male,50 Coleman Alley,10/28/2018,859-619-4649,22.01,"Oystercatcher, blackish",Cashier
8309,Sloan,Twitty,stwittyx@lycos.com,Male,1212 Burrows Street,5/31/2018,122-169-3342,12.22,Sloth bear,Cashier
4390,D'arcy,Aujean,daujeany@loc.gov,Male,3985 Kinsman Hill,3/2/2018,337-609-6566,1.81,"Cardinal, red-capped",Manager
8565,Carolan,Ticksall,cticksallz@bloglovin.com,Female,7 Service Way,1/18/2018,805-669-9966,12.97,"Falcon, prairie",Stocker
7266,Rees,Pentelo,rpentelo10@thetimes.co.uk,Male,619 Fisk Hill,8/10/2018,850-302-7761,20.46,Wild turkey,Technician
4901,Cortney,Drews,cdrews11@chicagotribune.com,Female,04341 Meadow Vale Way,8/27/2018,653-556-5287,9.01,"Starling, red-shouldered glossy",Cashier
192,Grantham,Purches,gpurches12@msu.edu,Male,07422 Montana Hill,8/2/2018,102-404-7068,29.87,"Deer, spotted",Technician
1325,Devonna,Forestel,dforestel13@google.ru,Female,45646 Kings Place,7/31/2018,557-211-6999,3.13,"Possum, pygmy",Cashier
6019,Loise,Berfoot,lberfoot14@yale.edu,Female,05 Golf Plaza,8/16/2018,864-570-0258,8.74,"Skink, blue-tongued",Technician
3675,Rodd,Aberkirdo,raberkirdo15@reuters.com,Male,48904 Gale Road,5/15/2018,174-930-3676,8.01,Nelson ground squirrel,Technician
2058,Hastie,Settle,hsettle16@com.com,Male,6549 Shoshone Street,3/31/2018,159-125-3417,20.4,Klipspringer,Stocker
5021,Mariejeanne,Ainge,mainge17@phpbb.com,Female,5628 Armistice Avenue,9/25/2018,415-705-3886,4.14,"Baboon, yellow",Manager
7017,Whitney,Walduck,wwalduck18@people.com.cn,Female,6 Blaine Place,11/19/2018,160-659-7081,16.42,Black-tailed prairie dog,Cashier
2511,Gretta,Rodder,grodder19@bbb.org,Female,74439 Larry Place,11/7/2018,636-966-1283,15.34,"Monkey, bleeding heart",Manager
4458,Nikolai,Vanetti,nvanetti1a@miibeian.gov.cn,Male,0 Green Ridge Court,12/22/2017,673-822-3972,20.97,Grey mouse lemur,Manager
332,Georgie,Harkes,gharkes1b@berkeley.edu,Female,52735 Summerview Trail,2/17/2018,607-589-5965,14.21,"Whale, baleen",Cashier
8793,Joane,Lagden,jlagden1c@scientificamerican.com,Female,8512 Banding Hill,11/21/2018,443-963-8937,17.71,"Cliffchat, mocking",Stocker
1710,Raymund,Schooley,rschooley1d@altervista.org,Male,5 Lerdahl Court,9/27/2018,123-499-0356,28.89,Asian openbill,Stocker
6069,Tammie,Barrowcliffe,tbarrowcliffe1e@goo.ne.jp,Female,6 Sycamore Hill,5/16/2018,760-643-4172,26.02,"Toucan, white-throated",Manager
9323,Basilio,Billion,bbillion1f@w3.org,Male,4514 Continental Alley,9/25/2018,768-407-7994,22.75,African wild dog,Cashier
8362,Milty,Cole,mcole1g@quantcast.com,Male,182 Forest Run Point,7/10/2018,328-515-9784,5.33,"Dragon, ornate rock",Technician
5304,Skipp,McIlvenna,smcilvenna1h@wikimedia.org,Male,9 Mandrake Court,12/2/2017,687-884-9895,4.6,"Monkey, red howler",Stocker
6335,Nat,Gouley,ngouley1i@csmonitor.com,Female,0 Westport Crossing,4/27/2018,119-760-7098,27.54,Black-necked stork,Cashier
8513,Boycie,Tumpane,btumpane1j@examiner.com,Male,1 Scofield Hill,12/27/2017,227-394-9220,7.6,"Curlew, black",Technician
388,Pet,Leehane,pleehane1k@sitemeter.com,Female,127 Lighthouse Bay Alley,11/5/2018,639-668-5448,18.79,"Kite, black",Stocker
9422,Phillipe,Giraldo,pgiraldo1l@etsy.com,Male,61215 Anderson Terrace,12/15/2017,210-480-8567,8.35,European red squirrel,Cashier
5677,Tresa,Barrar,tbarrar1m@businessinsider.com,Female,52 Clyde Gallagher Lane,2/14/2018,937-929-4088,26.24,Wild turkey,Cashier
9144,Weber,Lovell,wlovell1n@naver.com,Male,2567 Schurz Court,5/23/2018,739-155-7147,29.01,Rhesus macaque,Stocker
3082,Yul,Boyson,yboyson1o@engadget.com,Male,7803 Fulton Place,5/6/2018,623-435-7897,5.08,Black-footed ferret,Cashier
640,Edlin,Demead,edemead1p@google.pl,Male,220 Monica Hill,11/4/2018,958-187-1338,5.12,African polecat,Cashier
792,Lona,Uren,luren1q@businesswire.com,Female,7 Amoth Terrace,2/27/2018,717-991-4062,1.08,"Vulture, white-rumped",Technician
8190,Karalee,McCourtie,kmccourtie1r@go.com,Female,2 Thackeray Alley,8/12/2018,216-594-1470,7.8,Sacred ibis,Technician
1288,Brockie,Naish,bnaish1s@sohu.com,Male,3360 Dottie Avenue,11/14/2018,346-450-4631,2.06,"Sheep, red",Stocker
586,Corinna,Springtorpe,cspringtorpe1t@dedecms.com,Female,4 Continental Parkway,4/4/2018,649-580-4117,21.57,"Eagle, bald",Stocker
817,Hugibert,Sweatland,hsweatland1u@shinystat.com,Male,8710 Lighthouse Bay Parkway,1/25/2018,765-244-5918,11.27,"Nuthatch, red-breasted",Cashier
7072,Sarina,Baelde,sbaelde1v@github.com,Female,7756 Main Street,5/10/2018,930-822-1556,27.62,"Marten, american",Stocker
5023,Alanah,Rawdall,arawdall1w@google.pl,Female,5 Armistice Place,11/27/2018,544-821-3772,22.21,Galapagos penguin,Cashier
6572,Hervey,Locarno,hlocarno1x@usa.gov,Male,89848 Waywood Avenue,1/4/2018,418-277-5044,15.8,Curve-billed thrasher,Manager
5912,Winonah,Stanton,wstanton1y@jimdo.com,Female,393 Stuart Way,6/16/2018,236-255-2878,15.41,American badger,Manager
91,Mandy,Lampel,mlampel1z@ebay.com,Female,6488 Sage Drive,9/30/2018,490-603-0113,21.4,Bohor reedbuck,Stocker
9126,Gelya,Tiery,gtiery20@networkadvertising.org,Female,5 Porter Hill,10/14/2018,928-973-8138,19.63,Striped skunk,Cashier
8109,Arielle,Guillford,aguillford21@cyberchimps.com,Female,9207 Warrior Drive,3/21/2018,532-529-6781,2.7,"Possum, pygmy",Manager
3613,Aridatha,Charlo,acharlo22@techcrunch.com,Female,149 Commercial Street,11/22/2018,477-707-2809,27.5,Feathertail glider,Manager
1937,Laverne,Bilyard,lbilyard23@sourceforge.net,Female,99464 Texas Circle,10/7/2018,273-670-3522,27.33,Ring-tailed lemur,Stocker
6764,Mina,Jeffers,mjeffers24@cnet.com,Female,31288 Waxwing Point,7/2/2018,159-984-5875,18.09,"Heron, striated",Cashier
4966,Melamie,Melross,mmelross25@baidu.com,Female,10 Loomis Center,7/22/2018,112-870-3175,27.13,"Bushbaby, large-eared",Stocker
3969,Simone,Keetch,skeetch26@reverbnation.com,Male,310 Daystar Plaza,7/30/2018,682-324-7458,10.81,Beisa oryx,Technician
3042,Gaelan,Chartre,gchartre27@nbcnews.com,Male,3 Meadow Valley Pass,9/15/2018,583-707-8482,29.46,"Dove, rock",Stocker
86,Smith,Merigeau,smerigeau28@unc.edu,Male,6586 Waubesa Park,4/13/2018,942-809-1699,28.27,Sun gazer,Stocker
6788,Herman,De Blasiis,hdeblasiis29@ucla.edu,Male,60425 Bonner Point,7/29/2018,583-736-6756,24.92,Malagasy ground boa,Stocker
1763,Linc,Morgue,lmorgue2a@bloomberg.com,Male,803 Reindahl Road,6/8/2018,486-728-3810,12.11,"Squirrel, antelope ground",Manager
9880,Mercie,Epperson,mepperson2b@ameblo.jp,Female,1783 Hayes Pass,10/20/2018,918-356-5568,21.57,American black bear,Cashier
3467,Albertine,Pagin,apagin2c@ibm.com,Female,90989 Valley Edge Place,6/19/2018,551-505-6419,14.25,Native cat,Stocker
4419,Hobey,Guwer,hguwer2d@parallels.com,Male,18510 Arizona Plaza,4/10/2018,824-777-5079,9.08,"Pigeon, feral rock",Manager
2165,Monica,Cosker,mcosker2e@alexa.com,Female,385 Little Fleur Road,8/17/2018,527-424-9805,23.28,"Crow, pied",Stocker
3661,Hercules,Dallewater,hdallewater2f@berkeley.edu,Male,8755 Blaine Plaza,1/13/2018,379-720-2818,21.84,Southern brown bandicoot,Technician
8209,Zoe,Standrin,zstandrin2g@dion.ne.jp,Female,89635 Hollow Ridge Road,1/20/2018,977-901-5563,2.38,White-throated monitor,Manager
7183,Quinta,Pietrusiak,qpietrusiak2h@mac.com,Female,05 Coleman Park,1/29/2018,946-254-6689,16.08,Black rhinoceros,Technician
7944,Shaun,Breissan,sbreissan2i@over-blog.com,Male,284 Kennedy Junction,9/6/2018,199-948-9267,11.78,Fat-tailed dunnart,Stocker
1275,Noel,Haughton,nhaughton2j@wix.com,Male,0998 Forest Dale Street,4/23/2018,829-461-5423,19.81,Bengal vulture,Manager
5365,Viola,Lyosik,vlyosik2k@imdb.com,Female,6288 Cottonwood Alley,1/17/2018,848-844-1055,23.03,Dassie,Technician
3125,Cindee,Gorner,cgorner2l@nsw.gov.au,Female,9996 Mcguire Terrace,8/25/2018,221-208-8287,25.07,Pale-throated three-toed sloth,Manager
2511,Michael,Ingliby,mingliby2m@homestead.com,Male,987 Dorton Way,10/8/2018,387-332-4704,23.77,Meerkat,Cashier
8250,Donielle,Kennagh,dkennagh2n@booking.com,Female,087 Spaight Plaza,6/10/2018,278-632-7107,24.87,"Moorhen, purple",Manager
2851,Mallissa,Boyne,mboyne2o@webeden.co.uk,Female,3 Debs Park,4/28/2018,810-380-4939,14.41,"Waxbill, blue",Technician
2447,Brock,Bahde,bbahde2p@scribd.com,Male,8441 Morrow Point,7/7/2018,143-844-0250,1.6,Violet-crested turaco,Technician
4700,Greer,Tuttle,gtuttle2q@aboutads.info,Female,2 Mcguire Road,12/24/2017,218-644-1785,4.18,"Possum, golden brush-tailed",Technician
9175,Eloise,Hutson,ehutson2r@theglobeandmail.com,Female,723 Bartelt Avenue,4/18/2018,139-344-7566,12.71,"Lion, steller sea",Stocker
